beautifulsoup4==4.7.1
certifi==2019.6.16
chardet==3.0.4
idna==2.8
mps-youtube==0.2.8
numpy==1.16.4
opencv-python==4.1.0.25
pafy==0.5.4
pylivestream==1.9.4
python-vlc==3.0.6109
requests==2.22.0
soupsieve==1.9.2
subprocess.run==0.0.8
urllib3==1.25.3
youtube-dl==2019.7.2
